{ "intent": "request", 
	"concepts": [
	{ "concept":"next_question",
		"properties": [
		{"property":"next"},
		{"property":"question"}
		]

	},
	{ "concept":"next_tip",
		"properties": [
		{"property":"next"},
		{"property":"tip"},
		{"property":"go"},
		{"property":"on"}
		]
	},
	{ "concept":"repeat",
		"properties": [
		{"property":"repeat"}
		]
	}
	]
	
}
