{ 
    "intents": [
	{ "name":"root",
	  "children": [
	   {"child":"master"},  
	   {"child":"contestant"},
	   {"child":"mood"},
	   {"child":"greet"}
	   ]
	},
	{ "name":"greet",
	  "children": [
	  ],
	  "properties": [
	   {"property":"hello"},
	   {"property":"hi"},
	   {"property":"hey"}
	   
	  ]
	},
	{ "name":"master",
	  "children": [
	   {"child":"question"},
	   {"child":"feedback"}
	  ],
	  "properties": [
	   {"property":"want"},
	   {"property":"to"},
	   {"property":"be"},
	   {"property":"master"},
	   {"property":"quizmaster"},
	   {"property":"quiz"}
	  ]
	},	
	{ "name":"contestant",
	  "children": [
	   {"child":"answer"},
	   {"child":"request"}
	  ],
	  "properties": [
	   {"property":"player"},
	   {"property":"play"},
	   {"property":"ask"},
	   {"property":"me"},
	   {"property":"question"}
	  ]
	}
    ]
}
