{ "intent": "request", 
	"concepts": [
	{ "concept":"cheer_up",
		"properties": [
		{"property":"cheer"},
		{"property":"up"}
		]

	},
	{ "concept":"cheer_down",
		"properties": [
		{"property":"cheer"},
		{"property":"down"}
		]
	}
	]
	
}
